test_run_dir/Multiplier_Gate_Test/Multiplier.vcd
$date
2022-04-20T10:08+0000
$end
$version
0.2
$end
$comment

$end
$timescale 1ns  $end
$scope module Multiplier $end
 $var wire 32 ! _GEN_37 $end
 $var wire 64 " _r_quotient_T_4 $end
 $var wire 64 # _GEN_22 $end
 $var wire 64 $ _GEN_16 $end
 $var wire 5 % io_op $end
 $var wire 32 & io_src_a $end
 $var wire 95 ' _GEN_10 $end
 $var wire 1 ( _T $end
 $var wire 1 ) _GEN_31 $end
 $var wire 64 * _GEN_19 $end
 $var wire 1 + _GEN_25 $end
 $var wire 1 , _GEN_5 $end
 $var wire 1 - _r_ready_T $end
 $var wire 32 . io_output_bits $end
 $var wire 1 / _GEN_13 $end
 $var wire 1 0 r_ready $end
 $var wire 32 1 _io_output_bits_T_2 $end
 $var wire 96 2 _r_dividend_T_3 $end
 $var wire 1 3 _GEN_8 $end
 $var wire 1 4 io_ready $end
 $var wire 6 5 _GEN_24 $end
 $var wire 1 6 _GEN_30 $end
 $var wire 32 7 _GEN_39 $end
 $var wire 6 8 _GEN_27 $end
 $var wire 95 9 _GEN_33 $end
 $var wire 1 : _GEN_12 $end
 $var wire 1 ; _GEN_7 $end
 $var wire 95 < _GEN_15 $end
 $var wire 1 = io_output_valid $end
 $var wire 65 > _r_quotient_T_3 $end
 $var wire 32 ? _GEN_36 $end
 $var wire 95 @ _GEN_21 $end
 $var wire 32 A _io_output_bits_T_4 $end
 $var wire 64 B _GEN_1 $end
 $var wire 95 C _GEN_18 $end
 $var wire 64 D _out_wire_T $end
 $var wire 64 E _GEN_4 $end
 $var wire 1 F _GEN_41 $end
 $var wire 1 G clock $end
 $var wire 1 H _GEN_35 $end
 $var wire 32 I _io_output_bits_T $end
 $var wire 32 J _io_output_bits_T_1 $end
 $var wire 64 K out_wire $end
 $var wire 1 L _GEN_23 $end
 $var wire 32 M _GEN_38 $end
 $var wire 1 N _GEN_17 $end
 $var wire 32 O r_dividend $end
 $var wire 1 P _GEN_26 $end
 $var wire 1 Q io_valid $end
 $var wire 6 R _GEN_32 $end
 $var wire 32 S io_src_b $end
 $var wire 64 T _GEN_11 $end
 $var wire 64 U _r_quotient_T_2 $end
 $var wire 64 V _GEN_29 $end
 $var wire 32 W r_quotient $end
 $var wire 6 X _GEN_6 $end
 $var wire 6 Y _GEN_14 $end
 $var wire 95 Z _r_dividend_T_4 $end
 $var wire 95 [ _GEN_0 $end
 $var wire 32 \ _io_output_bits_T_3 $end
 $var wire 6 ] _GEN_9 $end
 $var wire 64 ^ _out_wire_T_1 $end
 $var wire 1 _ reset $end
 $var wire 95 ` _GEN_3 $end
 $var wire 32 a _io_output_bits_T_6 $end
 $var wire 64 b _GEN_34 $end
 $var wire 6 c r_counter $end
 $var wire 95 d _GEN_28 $end
 $var wire 32 e _GEN_40 $end
$upscope $end
$enddefinitions $end
$dumpvars
0;
b00000000000000000000000000000000000000000000000000000000000000000000000000000000000000000000000 <
b00000000000000000000000000000000 S
0=
b00000000000000000000000000000000000000000000000000000000000000000000000000000000000000000000000 '
b00000000000000000000000000000000 !
0N
b00000000000000000000000000000000 O
b00000000000000000000000000000000000000000000000000000000000000000000000000000000000000000000000 d
b000000 R
0P
b00000000000000000000000000000000 I
03
b000000 5
b0000000000000000000000000000000000000000000000000000000000000000 B
b00000000000000000000000000000000 .
0-
b0000000000000000000000000000000000000000000000000000000000000000 D
b00000 %
b00000000000000000000000000000000000000000000000000000000000000000000000000000000000000000000000 `
b000000 c
b00000000000000000000000000000000 M
0L
0/
b000000 ]
b00000000000000000000000000000000 \
0F
0)
b0000000000000000000000000000000000000000000000000000000000000000 U
b0000000000000000000000000000000000000000000000000000000000000000 #
0H
b00000000000000000000000000000000000000000000000000000000000000000 >
b00000000000000000000000000000000 A
0+
0_
b000000 Y
b00000000000000000000000000000000 &
b00000000000000000000000000000000000000000000000000000000000000000000000000000000000000000000000 C
b0000000000000000000000000000000000000000000000000000000000000000 K
b00000000000000000000000000000000000000000000000000000000000000000000000000000000000000000000000 Z
b00000000000000000000000000000000 ?
b000000 8
06
b00000000000000000000000000000000 7
b0000000000000000000000000000000000000000000000000000000000000000 b
b00000000000000000000000000000000 e
b00000000000000000000000000000000000000000000000000000000000000000000000000000000000000000000000 9
0:
b0000000000000000000000000000000000000000000000000000000000000000 ^
0Q
b00000000000000000000000000000000 J
04
b00000000000000000000000000000000 a
b000000000000000000000000000000000000000000000000000000000000000000000000000000000000000000000000 2
b0000000000000000000000000000000000000000000000000000000000000000 E
00
b00000000000000000000000000000000 1
0(
b0000000000000000000000000000000000000000000000000000000000000000 T
b0000000000000000000000000000000000000000000000000000000000000000 *
b00000000000000000000000000000000000000000000000000000000000000000000000000000000000000000000000 [
b0000000000000000000000000000000000000000000000000000000000000000 "
0G
b0000000000000000000000000000000000000000000000000000000000000000 V
b0000000000000000000000000000000000000000000000000000000000000000 $
b000000 X
b00000000000000000000000000000000000000000000000000000000000000000000000000000000000000000000000 @
b00000000000000000000000000000000 W
0,
$end
#0
b1000000000000000000000000000000000000000000000000000000000000000 B
b1000000000000000000000000000000000000000000000000000000000000000 "
b1000000000000000000000000000000000000000000000000000000000000000 U
b1000000000000000000000000000000000000000000000000000000000000000 *
16
1+
1:
1(
1=
b01000000000000000000000000000000000000000000000000000000000000000 >
1_
1;
#1
b0000000000000000000000000000000010000000000000000000000000000000 B
b011111 X
14
b100000 R
b100000 Y
b011111 5
06
b0000000000000000000000000000000010000000000000000000000000000000 E
1/
b00000000000000000000000000000000010000000000000000000000000000000 >
1)
10
b100000 c
b0000000000000000000000000000000010000000000000000000000000000000 T
b0000000000000000000000000000000010000000000000000000000000000000 "
b0000000000000000000000000000000010000000000000000000000000000000 U
b011111 8
1G
b0000000000000000000000000000000010000000000000000000000000000000 #
b0000000000000000000000000000000010000000000000000000000000000000 V
b0000000000000000000000000000000010000000000000000000000000000000 *
b011111 ]
0+
0:
0;
#6
b0000000000000000000000000000000000000000000000000000000000000000 B
1Q
b00101 %
b00000000000000000000000000000000 .
b00000000000000001010011000011011 &
b00000000000000000000000000000000 J
b00000000000000000000000000000010 S
b00000000000000000000000000000000000000000000000000000000000000000000000000000001010011000011011 '
b11111111111111111111111111111111111111111111111111111111111111100000000000000000000000000000000 Z
b0000000000000000000000000000000000000000000000000000000000000000 E
b0000000000000000000000000000000000000000000000000000000000000000 K
0=
0(
0)
b0000000000000000000000000000000000000000000000000000000000000000 T
b00000000000000000000000000000000000000000000000000000000000000000000000000000001010011000011011 d
b100000 8
0G
b111111111111111111111111111111111111111111111111111111111111111100000000000000000000000000000000 2
b0000000000000000000000000000000000000000000000000000000000000000 #
b0000000000000000000000000000000000000000000000000000000000000000 V
b0000000000000000000000000000000000000000000000000000000000000000 *
b100000 ]
b00000000000000000000000000000000000000000000000000000000000000000000000000000001010011000011011 9
b00000000000000000000000000000000 I
0_
#11
00
b00000000000000000000000000000000000000000000000000000000000000000000000000000001010011000011011 `
b00000000000000000000000000000000000000000000000000000000000000000000000000000001010011000011011 <
04
b00000000000000000000000000000000000000000000000000000000000000000000000000000001010011000011011 C
b00000000000000000000000000000000000000000000000000000000000000000000000000000001010011000011011 @
1G
b111111111111111111111111111111111111111111111111111111111111111100000000000000001010011000011011 2
b11111111111111111111111111111111111111111111111111111111111111100000000000000001010011000011011 Z
b00000000000000001010011000011011 O
b00000000000000001010011000011011 a
b00000000000000000000000000000000000000000000000000000000000000000000000000000001010011000011011 [
0/
#16
0Q
b011111 R
b011111 8
0G
b011111 ]
#21
b011111 c
b0000000000000000000000000000000001000000000000000000000000000000 "
b0000000000000000000000000000000001000000000000000000000000000000 U
b011110 X
b011110 R
b011110 8
1G
b111111111111111111111111111111111111111111111111111111111111111110000000000000001010011000011011 2
b011111 Y
b011110 5
b011110 ]
b11111111111111111111111111111111111111111111111111111111111111110000000000000001010011000011011 Z
b00000000000000000000000000000000001000000000000000000000000000000 >
#26
0G
#31
b011110 c
b0000000000000000000000000000000000100000000000000000000000000000 "
b0000000000000000000000000000000000100000000000000000000000000000 U
b011101 X
b011101 R
b011101 8
1G
b111111111111111111111111111111111111111111111111111111111111111111000000000000001010011000011011 2
b011110 Y
b011101 5
b011101 ]
b11111111111111111111111111111111111111111111111111111111111111111000000000000001010011000011011 Z
b00000000000000000000000000000000000100000000000000000000000000000 >
#36
0G
#41
b011101 c
b0000000000000000000000000000000000010000000000000000000000000000 "
b0000000000000000000000000000000000010000000000000000000000000000 U
b011100 X
b011100 R
b011100 8
1G
b111111111111111111111111111111111111111111111111111111111111111111100000000000001010011000011011 2
b011101 Y
b011100 5
b011100 ]
b11111111111111111111111111111111111111111111111111111111111111111100000000000001010011000011011 Z
b00000000000000000000000000000000000010000000000000000000000000000 >
#46
0G
#51
b011100 c
b0000000000000000000000000000000000001000000000000000000000000000 "
b0000000000000000000000000000000000001000000000000000000000000000 U
b011011 X
b011011 R
b011011 8
1G
b111111111111111111111111111111111111111111111111111111111111111111110000000000001010011000011011 2
b011100 Y
b011011 5
b011011 ]
b11111111111111111111111111111111111111111111111111111111111111111110000000000001010011000011011 Z
b00000000000000000000000000000000000001000000000000000000000000000 >
#56
0G
#61
b011011 c
b0000000000000000000000000000000000000100000000000000000000000000 "
b0000000000000000000000000000000000000100000000000000000000000000 U
b011010 X
b011010 R
b011010 8
1G
b111111111111111111111111111111111111111111111111111111111111111111111000000000001010011000011011 2
b011011 Y
b011010 5
b011010 ]
b11111111111111111111111111111111111111111111111111111111111111111111000000000001010011000011011 Z
b00000000000000000000000000000000000000100000000000000000000000000 >
#66
0G
#71
b011010 c
b0000000000000000000000000000000000000010000000000000000000000000 "
b0000000000000000000000000000000000000010000000000000000000000000 U
b011001 X
b011001 R
b011001 8
1G
b111111111111111111111111111111111111111111111111111111111111111111111100000000001010011000011011 2
b011010 Y
b011001 5
b011001 ]
b11111111111111111111111111111111111111111111111111111111111111111111100000000001010011000011011 Z
b00000000000000000000000000000000000000010000000000000000000000000 >
#76
0G
#81
b011001 c
b0000000000000000000000000000000000000001000000000000000000000000 "
b0000000000000000000000000000000000000001000000000000000000000000 U
b011000 X
b011000 R
b011000 8
1G
b111111111111111111111111111111111111111111111111111111111111111111111110000000001010011000011011 2
b011001 Y
b011000 5
b011000 ]
b11111111111111111111111111111111111111111111111111111111111111111111110000000001010011000011011 Z
b00000000000000000000000000000000000000001000000000000000000000000 >
#86
0G
#91
b011000 c
b0000000000000000000000000000000000000000100000000000000000000000 "
b0000000000000000000000000000000000000000100000000000000000000000 U
b010111 X
b010111 R
b010111 8
1G
b111111111111111111111111111111111111111111111111111111111111111111111111000000001010011000011011 2
b011000 Y
b010111 5
b010111 ]
b11111111111111111111111111111111111111111111111111111111111111111111111000000001010011000011011 Z
b00000000000000000000000000000000000000000100000000000000000000000 >
#96
0G
#101
b010111 c
b0000000000000000000000000000000000000000010000000000000000000000 "
b0000000000000000000000000000000000000000010000000000000000000000 U
b010110 X
b010110 R
b010110 8
1G
b111111111111111111111111111111111111111111111111111111111111111111111111100000001010011000011011 2
b010111 Y
b010110 5
b010110 ]
b11111111111111111111111111111111111111111111111111111111111111111111111100000001010011000011011 Z
b00000000000000000000000000000000000000000010000000000000000000000 >
#106
0G
#111
b010110 c
b0000000000000000000000000000000000000000001000000000000000000000 "
b0000000000000000000000000000000000000000001000000000000000000000 U
b010101 X
b010101 R
b010101 8
1G
b111111111111111111111111111111111111111111111111111111111111111111111111110000001010011000011011 2
b010110 Y
b010101 5
b010101 ]
b11111111111111111111111111111111111111111111111111111111111111111111111110000001010011000011011 Z
b00000000000000000000000000000000000000000001000000000000000000000 >
#116
0G
#121
b010101 c
b0000000000000000000000000000000000000000000100000000000000000000 "
b0000000000000000000000000000000000000000000100000000000000000000 U
b010100 X
b010100 R
b010100 8
1G
b111111111111111111111111111111111111111111111111111111111111111111111111111000001010011000011011 2
b010101 Y
b010100 5
b010100 ]
b11111111111111111111111111111111111111111111111111111111111111111111111111000001010011000011011 Z
b00000000000000000000000000000000000000000000100000000000000000000 >
#126
0G
#131
b010100 c
b0000000000000000000000000000000000000000000010000000000000000000 "
b0000000000000000000000000000000000000000000010000000000000000000 U
b010011 X
b010011 R
b010011 8
1G
b111111111111111111111111111111111111111111111111111111111111111111111111111100001010011000011011 2
b010100 Y
b010011 5
b010011 ]
b11111111111111111111111111111111111111111111111111111111111111111111111111100001010011000011011 Z
b00000000000000000000000000000000000000000000010000000000000000000 >
#136
0G
#141
b010011 c
b0000000000000000000000000000000000000000000001000000000000000000 "
b0000000000000000000000000000000000000000000001000000000000000000 U
b010010 X
b010010 R
b010010 8
1G
b111111111111111111111111111111111111111111111111111111111111111111111111111110001010011000011011 2
b010011 Y
b010010 5
b010010 ]
b11111111111111111111111111111111111111111111111111111111111111111111111111110001010011000011011 Z
b00000000000000000000000000000000000000000000001000000000000000000 >
#146
0G
#151
b010010 c
b0000000000000000000000000000000000000000000000100000000000000000 "
b0000000000000000000000000000000000000000000000100000000000000000 U
b010001 X
b010001 R
b010001 8
1G
b111111111111111111111111111111111111111111111111111111111111111111111111111111001010011000011011 2
b010010 Y
b010001 5
b010001 ]
b11111111111111111111111111111111111111111111111111111111111111111111111111111001010011000011011 Z
b00000000000000000000000000000000000000000000000100000000000000000 >
#156
0G
#161
b010001 c
b0000000000000000000000000000000000000000000000010000000000000000 "
b0000000000000000000000000000000000000000000000010000000000000000 U
b010000 X
b010000 R
b010000 8
1G
b111111111111111111111111111111111111111111111111111111111111111111111111111111101010011000011011 2
b010001 Y
b010000 5
b010000 ]
b11111111111111111111111111111111111111111111111111111111111111111111111111111101010011000011011 Z
b00000000000000000000000000000000000000000000000010000000000000000 >
#166
0G
#171
b010000 c
b0000000000000000000000000000000000000000000000001000000000000000 "
b0000000000000000000000000000000000000000000000001000000000000000 U
b001111 X
b001111 R
b001111 8
1G
b111111111111111111111111111111111111111111111111111111111111111111111111111111111010011000011011 2
b010000 Y
b001111 5
b001111 ]
b11111111111111111111111111111111111111111111111111111111111111111111111111111111010011000011011 Z
b00000000000000000000000000000000000000000000000001000000000000000 >
#176
0G
#181
b0000000000000000000000000000000000000000000000000100000000000000 B
b00000000000000000000000000000000000000000000000000000000000000000000000000000000010011000011011 `
b001110 X
b00000000000000000000000000000000000000000000000000000000000000000000000000000000010011000011011 C
b001110 R
b001111 Y
b001110 5
b00000000000000000000000000000000000000000000000000000000000000000000000000000000010011000011011 '
b00000000000000000000000000000000000000000000000000000000000000000000000000000000010011000011011 Z
b0000000000000000000000000000000000000000000000000100000000000000 E
b00000000000000000000000000000000000000000000000000000000000000000000000000000000010011000011011 [
b00000000000000000000000000000000000000000000000000100000000000000 >
b0000000000000000000000000000000000000000000000000100000000000000 b
b0000000000000000000000000000000000000000000000000100000000000000 T
b001111 c
b0000000000000000000000000000000000000000000000000100000000000000 "
b0000000000000000000000000000000000000000000000000100000000000000 U
b00000000000000000000000000000000000000000000000000000000000000000000000000000000010011000011011 @
b00000000000000000000000000000000000000000000000000000000000000000000000000000000010011000011011 d
b001110 8
1G
b000000000000000000000000000000000000000000000000000000000000000000000000000000000010011000011011 2
b0000000000000000000000000000000000000000000000000100000000000000 #
b0000000000000000000000000000000000000000000000000100000000000000 V
b0000000000000000000000000000000000000000000000000100000000000000 *
b001110 ]
b00000000000000000000000000000000000000000000000000000000000000000000000000000000010011000011011 9
#186
0G
#191
b00000000000000000000000000000000000000000000000000000000000000000000000000000000010011000011011 <
b001101 X
b001101 R
b00000000000000000100000000000000 .
b001110 Y
b001101 5
b11111111111111111111111111111111111111111111111111111111111111111111111111111111110011000011011 Z
b00000000000000000010011000011011 a
b00000000000000000100000000000000 7
b00000000000000000000000000000000000000000000000000110000000000000 >
b00000000000000000100000000000000 M
b001110 c
b0000000000000000000000000000000000000000000000000110000000000000 "
b0000000000000000000000000000000000000000000000000010000000000000 U
b001101 8
1G
b111111111111111111111111111111111111111111111111111111111111111111111111111111111110011000011011 2
b00000000000000000100000000000000 e
b001101 ]
b0000000000000000000000000000000000000000000000000100000000000000 $
b00000000000000000100000000000000 W
b00000000000000000010011000011011 O
b00000000000000000100000000000000 A
#196
0G
#201
b0000000000000000000000000000000000000000000000000101000000000000 B
b00000000000000000000000000000000000000000000000000000000000000000000000000000000000011000011011 `
b001100 X
b00000000000000000000000000000000000000000000000000000000000000000000000000000000000011000011011 C
b001100 R
b001101 Y
b001100 5
b00000000000000000000000000000000000000000000000000000000000000000000000000000000000011000011011 '
b00000000000000000000000000000000000000000000000000000000000000000000000000000000000011000011011 Z
b0000000000000000000000000000000000000000000000000101000000000000 E
b00000000000000000000000000000000000000000000000000000000000000000000000000000000000011000011011 [
b00000000000000000000000000000000000000000000000000101000000000000 >
b0000000000000000000000000000000000000000000000000101000000000000 b
b0000000000000000000000000000000000000000000000000101000000000000 T
b001101 c
b0000000000000000000000000000000000000000000000000101000000000000 "
b0000000000000000000000000000000000000000000000000001000000000000 U
b00000000000000000000000000000000000000000000000000000000000000000000000000000000000011000011011 @
b00000000000000000000000000000000000000000000000000000000000000000000000000000000000011000011011 d
b001100 8
1G
b000000000000000000000000000000000000000000000000000000000000000000000000000000000000011000011011 2
b0000000000000000000000000000000000000000000000000101000000000000 #
b0000000000000000000000000000000000000000000000000101000000000000 V
b0000000000000000000000000000000000000000000000000101000000000000 *
b001100 ]
b00000000000000000000000000000000000000000000000000000000000000000000000000000000000011000011011 9
#206
0G
#211
b00000000000000000000000000000000000000000000000000000000000000000000000000000000000011000011011 <
b001011 X
b001011 R
b00000000000000000101000000000000 .
b001100 Y
b001011 5
b11111111111111111111111111111111111111111111111111111111111111111111111111111111111011000011011 Z
b00000000000000000000011000011011 a
b00000000000000000101000000000000 7
b00000000000000000000000000000000000000000000000000101100000000000 >
b00000000000000000101000000000000 M
b001100 c
b0000000000000000000000000000000000000000000000000101100000000000 "
b0000000000000000000000000000000000000000000000000000100000000000 U
b001011 8
1G
b111111111111111111111111111111111111111111111111111111111111111111111111111111111111011000011011 2
b00000000000000000101000000000000 e
b001011 ]
b0000000000000000000000000000000000000000000000000101000000000000 $
b00000000000000000101000000000000 W
b00000000000000000000011000011011 O
b00000000000000000101000000000000 A
#216
0G
#221
b001011 c
b0000000000000000000000000000000000000000000000000101010000000000 "
b0000000000000000000000000000000000000000000000000000010000000000 U
b001010 X
b001010 R
b001010 8
1G
b111111111111111111111111111111111111111111111111111111111111111111111111111111111111111000011011 2
b001011 Y
b001010 5
b001010 ]
b11111111111111111111111111111111111111111111111111111111111111111111111111111111111111000011011 Z
b00000000000000000000000000000000000000000000000000101010000000000 >
#226
0G
#231
b0000000000000000000000000000000000000000000000000101001000000000 B
b00000000000000000000000000000000000000000000000000000000000000000000000000000000000001000011011 `
b001001 X
b00000000000000000000000000000000000000000000000000000000000000000000000000000000000001000011011 C
b001001 R
b001010 Y
b001001 5
b00000000000000000000000000000000000000000000000000000000000000000000000000000000000001000011011 '
b00000000000000000000000000000000000000000000000000000000000000000000000000000000000001000011011 Z
b0000000000000000000000000000000000000000000000000101001000000000 E
b00000000000000000000000000000000000000000000000000000000000000000000000000000000000001000011011 [
b00000000000000000000000000000000000000000000000000101001000000000 >
b0000000000000000000000000000000000000000000000000101001000000000 b
b0000000000000000000000000000000000000000000000000101001000000000 T
b001010 c
b0000000000000000000000000000000000000000000000000101001000000000 "
b0000000000000000000000000000000000000000000000000000001000000000 U
b00000000000000000000000000000000000000000000000000000000000000000000000000000000000001000011011 @
b00000000000000000000000000000000000000000000000000000000000000000000000000000000000001000011011 d
b001001 8
1G
b000000000000000000000000000000000000000000000000000000000000000000000000000000000000001000011011 2
b0000000000000000000000000000000000000000000000000101001000000000 #
b0000000000000000000000000000000000000000000000000101001000000000 V
b0000000000000000000000000000000000000000000000000101001000000000 *
b001001 ]
b00000000000000000000000000000000000000000000000000000000000000000000000000000000000001000011011 9
#236
0G
#241
b00000000000000000000000000000000000000000000000000000000000000000000000000000000000001000011011 <
b001000 R
b001000 5
b00000000000000000000001000011011 a
b00000000000000000101001000000000 7
b0000000000000000000000000000000000000000000000000101001100000000 b
b00000000000000000101001000000000 M
b001001 c
b00000000000000000000000000000000000000000000000000000000000000000000000000000000000000000011011 d
1G
b000000000000000000000000000000000000000000000000000000000000000000000000000000000000000000011011 2
b00000000000000000101001000000000 e
b0000000000000000000000000000000000000000000000000101001100000000 *
b001000 ]
b00000000000000000101001000000000 A
b0000000000000000000000000000000000000000000000000101001100000000 B
b00000000000000000000000000000000000000000000000000000000000000000000000000000000000000000011011 `
b001000 X
b00000000000000000000000000000000000000000000000000000000000000000000000000000000000000000011011 C
b00000000000000000101001000000000 .
b001001 Y
b00000000000000000000000000000000000000000000000000000000000000000000000000000000000000000011011 '
b00000000000000000000000000000000000000000000000000000000000000000000000000000000000000000011011 Z
b0000000000000000000000000000000000000000000000000101001100000000 E
b00000000000000000000000000000000000000000000000000000000000000000000000000000000000000000011011 [
b00000000000000000000000000000000000000000000000000101001100000000 >
b0000000000000000000000000000000000000000000000000101001100000000 T
b0000000000000000000000000000000000000000000000000101001100000000 "
b0000000000000000000000000000000000000000000000000000000100000000 U
b00000000000000000000000000000000000000000000000000000000000000000000000000000000000000000011011 @
b001000 8
b0000000000000000000000000000000000000000000000000101001100000000 #
b0000000000000000000000000000000000000000000000000101001100000000 V
b00000000000000000000000000000000000000000000000000000000000000000000000000000000000000000011011 9
b0000000000000000000000000000000000000000000000000101001000000000 $
b00000000000000000101001000000000 W
b00000000000000000000001000011011 O
#246
0G
#251
b00000000000000000000000000000000000000000000000000000000000000000000000000000000000000000011011 <
b000111 X
b000111 R
b00000000000000000101001100000000 .
b001000 Y
b000111 5
b11111111111111111111111111111111111111111111111111111111111111111111111111111111111111100011011 Z
b00000000000000000000000000011011 a
b00000000000000000101001100000000 7
b00000000000000000000000000000000000000000000000000101001110000000 >
b00000000000000000101001100000000 M
b001000 c
b0000000000000000000000000000000000000000000000000101001110000000 "
b0000000000000000000000000000000000000000000000000000000010000000 U
b000111 8
1G
b111111111111111111111111111111111111111111111111111111111111111111111111111111111111111100011011 2
b00000000000000000101001100000000 e
b000111 ]
b0000000000000000000000000000000000000000000000000101001100000000 $
b00000000000000000101001100000000 W
b00000000000000000000000000011011 O
b00000000000000000101001100000000 A
#256
0G
#261
b000111 c
b0000000000000000000000000000000000000000000000000101001101000000 "
b0000000000000000000000000000000000000000000000000000000001000000 U
b000110 X
b000110 R
b000110 8
1G
b111111111111111111111111111111111111111111111111111111111111111111111111111111111111111110011011 2
b000111 Y
b000110 5
b000110 ]
b11111111111111111111111111111111111111111111111111111111111111111111111111111111111111110011011 Z
b00000000000000000000000000000000000000000000000000101001101000000 >
#266
0G
#271
b000110 c
b0000000000000000000000000000000000000000000000000101001100100000 "
b0000000000000000000000000000000000000000000000000000000000100000 U
b000101 X
b000101 R
b000101 8
1G
b111111111111111111111111111111111111111111111111111111111111111111111111111111111111111111011011 2
b000110 Y
b000101 5
b000101 ]
b11111111111111111111111111111111111111111111111111111111111111111111111111111111111111111011011 Z
b00000000000000000000000000000000000000000000000000101001100100000 >
#276
0G
#281
b000101 c
b0000000000000000000000000000000000000000000000000101001100010000 "
b0000000000000000000000000000000000000000000000000000000000010000 U
b000100 X
b000100 R
b000100 8
1G
b111111111111111111111111111111111111111111111111111111111111111111111111111111111111111111111011 2
b000101 Y
b000100 5
b000100 ]
b11111111111111111111111111111111111111111111111111111111111111111111111111111111111111111111011 Z
b00000000000000000000000000000000000000000000000000101001100010000 >
#286
0G
#291
b0000000000000000000000000000000000000000000000000101001100001000 B
b00000000000000000000000000000000000000000000000000000000000000000000000000000000000000000001011 `
b000011 X
b00000000000000000000000000000000000000000000000000000000000000000000000000000000000000000001011 C
b000011 R
b000100 Y
b000011 5
b00000000000000000000000000000000000000000000000000000000000000000000000000000000000000000001011 '
b00000000000000000000000000000000000000000000000000000000000000000000000000000000000000000001011 Z
b0000000000000000000000000000000000000000000000000101001100001000 E
b00000000000000000000000000000000000000000000000000000000000000000000000000000000000000000001011 [
b00000000000000000000000000000000000000000000000000101001100001000 >
b0000000000000000000000000000000000000000000000000101001100001000 b
b0000000000000000000000000000000000000000000000000101001100001000 T
b000100 c
b0000000000000000000000000000000000000000000000000101001100001000 "
b0000000000000000000000000000000000000000000000000000000000001000 U
b00000000000000000000000000000000000000000000000000000000000000000000000000000000000000000001011 @
b00000000000000000000000000000000000000000000000000000000000000000000000000000000000000000001011 d
b000011 8
1G
b000000000000000000000000000000000000000000000000000000000000000000000000000000000000000000001011 2
b0000000000000000000000000000000000000000000000000101001100001000 #
b0000000000000000000000000000000000000000000000000101001100001000 V
b0000000000000000000000000000000000000000000000000101001100001000 *
b000011 ]
b00000000000000000000000000000000000000000000000000000000000000000000000000000000000000000001011 9
#296
0G
#301
b00000000000000000000000000000000000000000000000000000000000000000000000000000000000000000001011 <
b000010 R
b000010 5
b00000000000000000000000000001011 a
b00000000000000000101001100001000 7
b0000000000000000000000000000000000000000000000000101001100001100 b
b00000000000000000101001100001000 M
b000011 c
b00000000000000000000000000000000000000000000000000000000000000000000000000000000000000000000011 d
1G
b000000000000000000000000000000000000000000000000000000000000000000000000000000000000000000000011 2
b00000000000000000101001100001000 e
b0000000000000000000000000000000000000000000000000101001100001100 *
b000010 ]
b00000000000000000101001100001000 A
b0000000000000000000000000000000000000000000000000101001100001100 B
b00000000000000000000000000000000000000000000000000000000000000000000000000000000000000000000011 `
b000010 X
b00000000000000000000000000000000000000000000000000000000000000000000000000000000000000000000011 C
b00000000000000000101001100001000 .
b000011 Y
b00000000000000000000000000000000000000000000000000000000000000000000000000000000000000000000011 '
b00000000000000000000000000000000000000000000000000000000000000000000000000000000000000000000011 Z
b0000000000000000000000000000000000000000000000000101001100001100 E
b00000000000000000000000000000000000000000000000000000000000000000000000000000000000000000000011 [
b00000000000000000000000000000000000000000000000000101001100001100 >
b0000000000000000000000000000000000000000000000000101001100001100 T
b0000000000000000000000000000000000000000000000000101001100001100 "
b0000000000000000000000000000000000000000000000000000000000000100 U
b00000000000000000000000000000000000000000000000000000000000000000000000000000000000000000000011 @
b000010 8
b0000000000000000000000000000000000000000000000000101001100001100 #
b0000000000000000000000000000000000000000000000000101001100001100 V
b00000000000000000000000000000000000000000000000000000000000000000000000000000000000000000000011 9
b0000000000000000000000000000000000000000000000000101001100001000 $
b00000000000000000101001100001000 W
b00000000000000000000000000001011 O
#306
0G
#311
b00000000000000000000000000000000000000000000000000000000000000000000000000000000000000000000011 <
b000001 X
b000001 R
b00000000000000000101001100001100 .
b000010 Y
b000001 5
b11111111111111111111111111111111111111111111111111111111111111111111111111111111111111111111111 Z
b00000000000000000000000000000011 a
b00000000000000000101001100001100 7
b00000000000000000000000000000000000000000000000000101001100001110 >
b00000000000000000101001100001100 M
b000010 c
b0000000000000000000000000000000000000000000000000101001100001110 "
b0000000000000000000000000000000000000000000000000000000000000010 U
b000001 8
1G
b111111111111111111111111111111111111111111111111111111111111111111111111111111111111111111111111 2
b00000000000000000101001100001100 e
b000001 ]
b0000000000000000000000000000000000000000000000000101001100001100 $
b00000000000000000101001100001100 W
b00000000000000000000000000000011 O
b00000000000000000101001100001100 A
#316
0G
#321
13
b000000 R
b000000 5
1L
b0000000000000000000000000000000000000000000000000101001100001101 b
b000001 c
b00000000000000000000000000000000000000000000000000000000000000000000000000000000000000000000001 d
1G
b000000000000000000000000000000000000000000000000000000000000000000000000000000000000000000000001 2
b0000000000000000000000000000000000000000000000000101001100001101 *
b000000 ]
1,
b0000000000000000000000000000000000000000000000000101001100001101 B
1-
b00000000000000000000000000000000000000000000000000000000000000000000000000000000000000000000001 `
b000000 X
b00000000000000000000000000000000000000000000000000000000000000000000000000000000000000000000001 C
b000001 Y
b00000000000000000000000000000000000000000000000000000000000000000000000000000000000000000000001 '
b00000000000000000000000000000000000000000000000000000000000000000000000000000000000000000000001 Z
b0000000000000000000000000000000000000000000000000101001100001101 E
b00000000000000000000000000000000000000000000000000000000000000000000000000000000000000000000001 [
b00000000000000000000000000000000000000000000000000101001100001101 >
1)
b0000000000000000000000000000000000000000000000000101001100001101 T
b0000000000000000000000000000000000000000000000000101001100001101 "
b0000000000000000000000000000000000000000000000000000000000000001 U
b00000000000000000000000000000000000000000000000000000000000000000000000000000000000000000000001 @
b000000 8
b0000000000000000000000000000000000000000000000000101001100001101 #
b0000000000000000000000000000000000000000000000000101001100001101 V
b00000000000000000000000000000000000000000000000000000000000000000000000000000000000000000000001 9
1P
#326
0G
#331
b00000000000000000000000000000000000000000000000000000000000000000000000000000000000000000000001 <
14
16
b00000000000000000000000000000001 a
b00000000000000000101001100001101 7
1/
b00000000000000000101001100001101 M
10
b000000 c
1F
1G
b111111111111111111111111111111110000000000000000000000000000000000000000000000000000000000000001 2
b00000000000000000101001100001101 e
1H
1+
b00000000000000000101001100001101 A
0-
b00000000000000000101001100001101 .
b000000 Y
b11111111111111111111111111111110000000000000000000000000000000000000000000000000000000000000001 Z
1=
b01000000000000000000000000000000000000000000000000101001100001101 >
b1000000000000000000000000000000000000000000000000101001100001101 "
b1000000000000000000000000000000000000000000000000000000000000000 U
b0000000000000000000000000000000000000000000000000101001100001101 $
b00000000000000000101001100001101 W
b00000000000000000000000000000001 O
1:
1;
