test_run_dir/Multiplier_Gate_Test/Multiplier.vcd
$date
2022-04-15T10:23+0000
$end
$version
0.2
$end
$comment

$end
$timescale 1ns  $end
$scope module Multiplier $end
 $var wire 64 ! _r_quotient_T_4 $end
 $var wire 64 " _GEN_16 $end
 $var wire 5 # io_op $end
 $var wire 32 $ io_src_a $end
 $var wire 95 % _GEN_10 $end
 $var wire 1 & _T $end
 $var wire 32 ' _GEN_19 $end
 $var wire 1 ( _GEN_5 $end
 $var wire 1 ) _r_ready_T $end
 $var wire 32 * io_output_bits $end
 $var wire 1 + _GEN_13 $end
 $var wire 1 , r_ready $end
 $var wire 96 - _r_dividend_T_3 $end
 $var wire 1 . _GEN_8 $end
 $var wire 1 / io_ready $end
 $var wire 1 0 _GEN_12 $end
 $var wire 95 1 _GEN_15 $end
 $var wire 1 2 _GEN_7 $end
 $var wire 1 3 io_output_valid $end
 $var wire 65 4 _r_quotient_T_3 $end
 $var wire 1 5 _GEN_21 $end
 $var wire 32 6 _GEN_18 $end
 $var wire 64 7 _GEN_1 $end
 $var wire 64 8 _out_wire_T $end
 $var wire 64 9 _GEN_4 $end
 $var wire 32 : _io_output_bits_T $end
 $var wire 1 ; clock $end
 $var wire 32 < _io_output_bits_T_1 $end
 $var wire 64 = out_wire $end
 $var wire 1 > _GEN_17 $end
 $var wire 32 ? r_dividend $end
 $var wire 1 @ io_valid $end
 $var wire 64 A _GEN_11 $end
 $var wire 32 B io_src_b $end
 $var wire 64 C _r_quotient_T_2 $end
 $var wire 32 D _GEN_20 $end
 $var wire 32 E r_quotient $end
 $var wire 6 F _GEN_14 $end
 $var wire 6 G _GEN_6 $end
 $var wire 95 H _r_dividend_T_4 $end
 $var wire 95 I _GEN_0 $end
 $var wire 6 J _GEN_9 $end
 $var wire 64 K _out_wire_T_1 $end
 $var wire 1 L reset $end
 $var wire 95 M _GEN_3 $end
 $var wire 6 N r_counter $end
$upscope $end
$enddefinitions $end
$dumpvars
b00000000000000000000000000000000 D
b00000000000000000000000000000000 <
b00000000000000000000000000000000000000000000000000000000000000000000000000000000000000000000000 %
0&
b00000000000000000000000000000000 '
0;
b0000000000000000000000000000000000000000000000000000000000000000 K
b0000000000000000000000000000000000000000000000000000000000000000 !
0>
b0000000000000000000000000000000000000000000000000000000000000000 7
b00000000000000000000000000000000 ?
b0000000000000000000000000000000000000000000000000000000000000000 8
b00000000000000000000000000000000000000000000000000000000000000000000000000000000000000000000000 M
b00000000000000000000000000000000 :
02
b000000 J
03
b00000 #
b00000000000000000000000000000000000000000000000000000000000000000000000000000000000000000000000 I
05
b00000000000000000000000000000000 6
b0000000000000000000000000000000000000000000000000000000000000000 C
b00000000000000000000000000000000000000000000000000000000000000000 4
0.
b000000 N
0L
b000000 F
b00000000000000000000000000000000 E
0/
b0000000000000000000000000000000000000000000000000000000000000000 =
b000000 G
00
0(
b00000000000000000000000000000000 *
b000000000000000000000000000000000000000000000000000000000000000000000000000000000000000000000000 -
b00000000000000000000000000000000000000000000000000000000000000000000000000000000000000000000000 1
0)
b0000000000000000000000000000000000000000000000000000000000000000 "
b0000000000000000000000000000000000000000000000000000000000000000 A
0@
0+
b00000000000000000000000000000000000000000000000000000000000000000000000000000000000000000000000 H
b0000000000000000000000000000000000000000000000000000000000000000 9
b00000000000000000000000000000000 $
b00000000000000000000000000000000 B
0,
$end
#0
b1000000000000000000000000000000000000000000000000000000000000000 !
10
13
b01000000000000000000000000000000000000000000000000000000000000000 4
b1000000000000000000000000000000000000000000000000000000000000000 C
1&
12
1L
b1000000000000000000000000000000000000000000000000000000000000000 7
#1
b00000000000000000000000000000000010000000000000000000000000000000 4
b0000000000000000000000000000000010000000000000000000000000000000 C
b011111 J
b0000000000000000000000000000000010000000000000000000000000000000 7
1/
b0000000000000000000000000000000010000000000000000000000000000000 !
00
b100000 N
b100000 F
b011111 G
02
b0000000000000000000000000000000010000000000000000000000000000000 9
1+
b0000000000000000000000000000000010000000000000000000000000000000 A
1,
1;
#6
03
b00000000000000000000000001100100 B
b111111111111111111111111111111111111111111111111111111111100111000000000000000000000000000000000 -
b00000000000000000000000000000000 <
b00000000000000000000000000000000000000000000000000000000000000011111111111111111111111111111111 %
b100000 J
0&
b0000000000000000000000000000000000000000000000000000000000000000 =
0L
b0000000000000000000000000000000000000000000000000000000000000000 7
b00000000000000000000000000000000000000000000000000000000000000011111111111111111111111111111111 1
1@
b00111 #
b00000000000000000000000000000000 *
b0000000000000000000000000000000000000000000000000000000000000000 9
b11111111111111111111111111111111 $
b11111111111111111111111111111111111111111111111111111111100111000000000000000000000000000000000 H
0+
b00000000000000000000000000000000 :
b0000000000000000000000000000000000000000000000000000000000000000 A
0;
#11
b11111111111111111111111111111111 ?
b111111111111111111111111111111111111111111111111111111111100111011111111111111111111111111111111 -
b11111111111111111111111111111111 D
b11111111111111111111111111111111 *
b11111111111111111111111111111111 '
b11111111111111111111111111111111111111111111111111111111100111011111111111111111111111111111111 H
b11111111111111111111111111111111 6
b00000000000000000000000000000000000000000000000000000000000000011111111111111111111111111111111 I
0/
0,
1;
b00000000000000000000000000000000000000000000000000000000000000011111111111111111111111111111111 M
#16
b011111 F
0@
b011111 J
0;
#21
b0000000000000000000000000000000001000000000000000000000000000000 !
b111111111111111111111111111111111111111111111111111111111110011111111111111111111111111111111111 -
b011111 N
b00000000000000000000000000000000001000000000000000000000000000000 4
b0000000000000000000000000000000001000000000000000000000000000000 C
b011110 F
b011110 J
b011110 G
b11111111111111111111111111111111111111111111111111111111110011111111111111111111111111111111111 H
1;
#26
0;
#31
b0000000000000000000000000000000000100000000000000000000000000000 !
b111111111111111111111111111111111111111111111111111111111111010001111111111111111111111111111111 -
b011110 N
b00000000000000000000000000000000000100000000000000000000000000000 4
b0000000000000000000000000000000000100000000000000000000000000000 C
b011101 F
b011101 J
b011101 G
b11111111111111111111111111111111111111111111111111111111111010001111111111111111111111111111111 H
1;
#36
0;
#41
b0000000000000000000000000000000000010000000000000000000000000000 !
b111111111111111111111111111111111111111111111111111111111111101010111111111111111111111111111111 -
b011101 N
b00000000000000000000000000000000000010000000000000000000000000000 4
b0000000000000000000000000000000000010000000000000000000000000000 C
b011100 F
b011100 J
b011100 G
b11111111111111111111111111111111111111111111111111111111111101010111111111111111111111111111111 H
1;
#46
0;
#51
b0000000000000000000000000000000000001000000000000000000000000000 !
b111111111111111111111111111111111111111111111111111111111111110111011111111111111111111111111111 -
b011100 N
b00000000000000000000000000000000000001000000000000000000000000000 4
b0000000000000000000000000000000000001000000000000000000000000000 C
b011011 F
b011011 J
b011011 G
b11111111111111111111111111111111111111111111111111111111111110111011111111111111111111111111111 H
1;
#56
0;
#61
b0000000000000000000000000000000000000100000000000000000000000000 !
b111111111111111111111111111111111111111111111111111111111111111101101111111111111111111111111111 -
b011011 N
b00000000000000000000000000000000000000100000000000000000000000000 4
b0000000000000000000000000000000000000100000000000000000000000000 C
b011010 F
b011010 J
b011010 G
b11111111111111111111111111111111111111111111111111111111111111101101111111111111111111111111111 H
1;
#66
0;
#71
b000000000000000000000000000000000000000000000000000000000000000000110111111111111111111111111111 -
b00000000000000000000000000000000000000000000000000000000000000000110111111111111111111111111111 %
b00000000000000000000000000000000000000010000000000000000000000000 4
b0000000000000000000000000000000000000010000000000000000000000000 C
b011001 J
b0000000000000000000000000000000000000010000000000000000000000000 7
b00000000000000000000000000000000000000000000000000000000000000000110111111111111111111111111111 M
b0000000000000000000000000000000000000010000000000000000000000000 !
b011010 N
b0000000000000000000000000000000000000010000000000000000000000000 "
b00000000000000000000000000000000000000000000000000000000000000000110111111111111111111111111111 1
b011001 F
b011001 G
b0000000000000000000000000000000000000010000000000000000000000000 9
b00000000000000000000000000000000000000000000000000000000000000000110111111111111111111111111111 H
b00000000000000000000000000000000000000000000000000000000000000000110111111111111111111111111111 I
b0000000000000000000000000000000000000010000000000000000000000000 A
1;
#76
0;
#81
b111111111111111111111111111111111111111111111111111111111111111111010011111111111111111111111111 -
b00000000000000000000000000000000000000011000000000000000000000000 4
b0000000000000000000000000000000000000001000000000000000000000000 C
b011000 J
b00110111111111111111111111111111 D
b00110111111111111111111111111111 '
b00110111111111111111111111111111 6
b00000010000000000000000000000000 E
b0000000000000000000000000000000000000011000000000000000000000000 !
b00110111111111111111111111111111 ?
b011001 N
b011000 F
b011000 G
b00110111111111111111111111111111 *
b11111111111111111111111111111111111111111111111111111111111111111010011111111111111111111111111 H
1;
#86
0;
#91
b000000000000000000000000000000000000000000000000000000000000000000000101111111111111111111111111 -
b00000000000000000000000000000000000000000000000000000000000000000000101111111111111111111111111 %
b00000000000000000000000000000000000000010100000000000000000000000 4
b0000000000000000000000000000000000000000100000000000000000000000 C
b010111 J
b0000000000000000000000000000000000000010100000000000000000000000 7
b00000000000000000000000000000000000000000000000000000000000000000000101111111111111111111111111 M
b0000000000000000000000000000000000000010100000000000000000000000 !
b011000 N
b0000000000000000000000000000000000000010100000000000000000000000 "
b00000000000000000000000000000000000000000000000000000000000000000000101111111111111111111111111 1
b010111 F
b010111 G
b0000000000000000000000000000000000000010100000000000000000000000 9
b00000000000000000000000000000000000000000000000000000000000000000000101111111111111111111111111 H
b00000000000000000000000000000000000000000000000000000000000000000000101111111111111111111111111 I
b0000000000000000000000000000000000000010100000000000000000000000 A
1;
#96
0;
#101
b111111111111111111111111111111111111111111111111111111111111111111101100111111111111111111111111 -
b00000000000000000000000000000000000000010110000000000000000000000 4
b0000000000000000000000000000000000000000010000000000000000000000 C
b010110 J
b00000101111111111111111111111111 D
b00000101111111111111111111111111 '
b00000101111111111111111111111111 6
b00000010100000000000000000000000 E
b0000000000000000000000000000000000000010110000000000000000000000 !
b00000101111111111111111111111111 ?
b010111 N
b010110 F
b010110 G
b00000101111111111111111111111111 *
b11111111111111111111111111111111111111111111111111111111111111111101100111111111111111111111111 H
1;
#106
0;
#111
b0000000000000000000000000000000000000010101000000000000000000000 !
b111111111111111111111111111111111111111111111111111111111111111111111001011111111111111111111111 -
b010110 N
b00000000000000000000000000000000000000010101000000000000000000000 4
b0000000000000000000000000000000000000000001000000000000000000000 C
b010101 F
b010101 J
b010101 G
b11111111111111111111111111111111111111111111111111111111111111111111001011111111111111111111111 H
1;
#116
0;
#121
b0000000000000000000000000000000000000010100100000000000000000000 !
b111111111111111111111111111111111111111111111111111111111111111111111111101111111111111111111111 -
b010101 N
b00000000000000000000000000000000000000010100100000000000000000000 4
b0000000000000000000000000000000000000000000100000000000000000000 C
b010100 F
b010100 J
b010100 G
b11111111111111111111111111111111111111111111111111111111111111111111111101111111111111111111111 H
1;
#126
0;
#131
b000000000000000000000000000000000000000000000000000000000000000000000010110111111111111111111111 -
b00000000000000000000000000000000000000000000000000000000000000000000010110111111111111111111111 %
b00000000000000000000000000000000000000010100010000000000000000000 4
b0000000000000000000000000000000000000000000010000000000000000000 C
b010011 J
b0000000000000000000000000000000000000010100010000000000000000000 7
b00000000000000000000000000000000000000000000000000000000000000000000010110111111111111111111111 M
b0000000000000000000000000000000000000010100010000000000000000000 !
b010100 N
b0000000000000000000000000000000000000010100010000000000000000000 "
b00000000000000000000000000000000000000000000000000000000000000000000010110111111111111111111111 1
b010011 F
b010011 G
b0000000000000000000000000000000000000010100010000000000000000000 9
b00000000000000000000000000000000000000000000000000000000000000000000010110111111111111111111111 H
b00000000000000000000000000000000000000000000000000000000000000000000010110111111111111111111111 I
b0000000000000000000000000000000000000010100010000000000000000000 A
1;
#136
0;
#141
b000000000000000000000000000000000000000000000000000000000000000000000001010011111111111111111111 -
b00000000000000000000000000000000000000000000000000000000000000000000001010011111111111111111111 %
b00000000000000000000000000000000000000010100011000000000000000000 4
b0000000000000000000000000000000000000000000001000000000000000000 C
b010010 J
b00000010110111111111111111111111 D
b00000010110111111111111111111111 '
b00000010110111111111111111111111 6
b00000010100010000000000000000000 E
b0000000000000000000000000000000000000010100011000000000000000000 7
b00000000000000000000000000000000000000000000000000000000000000000000001010011111111111111111111 M
b0000000000000000000000000000000000000010100011000000000000000000 !
b00000010110111111111111111111111 ?
b010011 N
b0000000000000000000000000000000000000010100011000000000000000000 "
b00000000000000000000000000000000000000000000000000000000000000000000001010011111111111111111111 1
b010010 F
b010010 G
b00000010110111111111111111111111 *
b0000000000000000000000000000000000000010100011000000000000000000 9
b00000000000000000000000000000000000000000000000000000000000000000000001010011111111111111111111 H
b00000000000000000000000000000000000000000000000000000000000000000000001010011111111111111111111 I
b0000000000000000000000000000000000000010100011000000000000000000 A
1;
#146
0;
#151
b000000000000000000000000000000000000000000000000000000000000000000000000100001111111111111111111 -
b00000000000000000000000000000000000000000000000000000000000000000000000100001111111111111111111 %
b00000000000000000000000000000000000000010100011100000000000000000 4
b0000000000000000000000000000000000000000000000100000000000000000 C
b010001 J
b00000001010011111111111111111111 D
b00000001010011111111111111111111 '
b00000001010011111111111111111111 6
b00000010100011000000000000000000 E
b0000000000000000000000000000000000000010100011100000000000000000 7
b00000000000000000000000000000000000000000000000000000000000000000000000100001111111111111111111 M
b0000000000000000000000000000000000000010100011100000000000000000 !
b00000001010011111111111111111111 ?
b010010 N
b0000000000000000000000000000000000000010100011100000000000000000 "
b00000000000000000000000000000000000000000000000000000000000000000000000100001111111111111111111 1
b010001 F
b010001 G
b00000001010011111111111111111111 *
b0000000000000000000000000000000000000010100011100000000000000000 9
b00000000000000000000000000000000000000000000000000000000000000000000000100001111111111111111111 H
b00000000000000000000000000000000000000000000000000000000000000000000000100001111111111111111111 I
b0000000000000000000000000000000000000010100011100000000000000000 A
1;
#156
0;
#161
b000000000000000000000000000000000000000000000000000000000000000000000000001000111111111111111111 -
b00000000000000000000000000000000000000000000000000000000000000000000000001000111111111111111111 %
b00000000000000000000000000000000000000010100011110000000000000000 4
b0000000000000000000000000000000000000000000000010000000000000000 C
b010000 J
b00000000100001111111111111111111 D
b00000000100001111111111111111111 '
b00000000100001111111111111111111 6
b00000010100011100000000000000000 E
b0000000000000000000000000000000000000010100011110000000000000000 7
b00000000000000000000000000000000000000000000000000000000000000000000000001000111111111111111111 M
b0000000000000000000000000000000000000010100011110000000000000000 !
b00000000100001111111111111111111 ?
b010001 N
b0000000000000000000000000000000000000010100011110000000000000000 "
b00000000000000000000000000000000000000000000000000000000000000000000000001000111111111111111111 1
b010000 F
b010000 G
b00000000100001111111111111111111 *
b0000000000000000000000000000000000000010100011110000000000000000 9
b00000000000000000000000000000000000000000000000000000000000000000000000001000111111111111111111 H
b00000000000000000000000000000000000000000000000000000000000000000000000001000111111111111111111 I
b0000000000000000000000000000000000000010100011110000000000000000 A
1;
#166
0;
#171
b111111111111111111111111111111111111111111111111111111111111111111111111111100011111111111111111 -
b00000000000000000000000000000000000000010100011111000000000000000 4
b0000000000000000000000000000000000000000000000001000000000000000 C
b001111 J
b00000000001000111111111111111111 D
b00000000001000111111111111111111 '
b00000000001000111111111111111111 6
b00000010100011110000000000000000 E
b0000000000000000000000000000000000000010100011111000000000000000 !
b00000000001000111111111111111111 ?
b010000 N
b001111 F
b001111 G
b00000000001000111111111111111111 *
b11111111111111111111111111111111111111111111111111111111111111111111111111100011111111111111111 H
1;
#176
0;
#181
b000000000000000000000000000000000000000000000000000000000000000000000000000010101111111111111111 -
b00000000000000000000000000000000000000000000000000000000000000000000000000010101111111111111111 %
b00000000000000000000000000000000000000010100011110100000000000000 4
b0000000000000000000000000000000000000000000000000100000000000000 C
b001110 J
b0000000000000000000000000000000000000010100011110100000000000000 7
b00000000000000000000000000000000000000000000000000000000000000000000000000010101111111111111111 M
b0000000000000000000000000000000000000010100011110100000000000000 !
b001111 N
b0000000000000000000000000000000000000010100011110100000000000000 "
b00000000000000000000000000000000000000000000000000000000000000000000000000010101111111111111111 1
b001110 F
b001110 G
b0000000000000000000000000000000000000010100011110100000000000000 9
b00000000000000000000000000000000000000000000000000000000000000000000000000010101111111111111111 H
b00000000000000000000000000000000000000000000000000000000000000000000000000010101111111111111111 I
b0000000000000000000000000000000000000010100011110100000000000000 A
1;
#186
0;
#191
b111111111111111111111111111111111111111111111111111111111111111111111111111111100111111111111111 -
b00000000000000000000000000000000000000010100011110110000000000000 4
b0000000000000000000000000000000000000000000000000010000000000000 C
b001101 J
b00000000000010101111111111111111 D
b00000000000010101111111111111111 '
b00000000000010101111111111111111 6
b00000010100011110100000000000000 E
b0000000000000000000000000000000000000010100011110110000000000000 !
b00000000000010101111111111111111 ?
b001110 N
b001101 F
b001101 G
b00000000000010101111111111111111 *
b11111111111111111111111111111111111111111111111111111111111111111111111111111100111111111111111 H
1;
#196
0;
#201
b000000000000000000000000000000000000000000000000000000000000000000000000000001001011111111111111 -
b00000000000000000000000000000000000000000000000000000000000000000000000000001001011111111111111 %
b00000000000000000000000000000000000000010100011110101000000000000 4
b0000000000000000000000000000000000000000000000000001000000000000 C
b001100 J
b0000000000000000000000000000000000000010100011110101000000000000 7
b00000000000000000000000000000000000000000000000000000000000000000000000000001001011111111111111 M
b0000000000000000000000000000000000000010100011110101000000000000 !
b001101 N
b0000000000000000000000000000000000000010100011110101000000000000 "
b00000000000000000000000000000000000000000000000000000000000000000000000000001001011111111111111 1
b001100 F
b001100 G
b0000000000000000000000000000000000000010100011110101000000000000 9
b00000000000000000000000000000000000000000000000000000000000000000000000000001001011111111111111 H
b00000000000000000000000000000000000000000000000000000000000000000000000000001001011111111111111 I
b0000000000000000000000000000000000000010100011110101000000000000 A
1;
#206
0;
#211
b000000000000000000000000000000000000000000000000000000000000000000000000000000011001111111111111 -
b00000000000000000000000000000000000000000000000000000000000000000000000000000011001111111111111 %
b00000000000000000000000000000000000000010100011110101100000000000 4
b0000000000000000000000000000000000000000000000000000100000000000 C
b001011 J
b00000000000001001011111111111111 D
b00000000000001001011111111111111 '
b00000000000001001011111111111111 6
b00000010100011110101000000000000 E
b0000000000000000000000000000000000000010100011110101100000000000 7
b00000000000000000000000000000000000000000000000000000000000000000000000000000011001111111111111 M
b0000000000000000000000000000000000000010100011110101100000000000 !
b00000000000001001011111111111111 ?
b001100 N
b0000000000000000000000000000000000000010100011110101100000000000 "
b00000000000000000000000000000000000000000000000000000000000000000000000000000011001111111111111 1
b001011 F
b001011 G
b00000000000001001011111111111111 *
b0000000000000000000000000000000000000010100011110101100000000000 9
b00000000000000000000000000000000000000000000000000000000000000000000000000000011001111111111111 H
b00000000000000000000000000000000000000000000000000000000000000000000000000000011001111111111111 I
b0000000000000000000000000000000000000010100011110101100000000000 A
1;
#216
0;
#221
b000000000000000000000000000000000000000000000000000000000000000000000000000000000000111111111111 -
b00000000000000000000000000000000000000000000000000000000000000000000000000000000000111111111111 %
b00000000000000000000000000000000000000010100011110101110000000000 4
b0000000000000000000000000000000000000000000000000000010000000000 C
b001010 J
b00000000000000011001111111111111 D
b00000000000000011001111111111111 '
b00000000000000011001111111111111 6
b00000010100011110101100000000000 E
b0000000000000000000000000000000000000010100011110101110000000000 7
b00000000000000000000000000000000000000000000000000000000000000000000000000000000000111111111111 M
b0000000000000000000000000000000000000010100011110101110000000000 !
b00000000000000011001111111111111 ?
b001011 N
b0000000000000000000000000000000000000010100011110101110000000000 "
b00000000000000000000000000000000000000000000000000000000000000000000000000000000000111111111111 1
b001010 F
b001010 G
b00000000000000011001111111111111 *
b0000000000000000000000000000000000000010100011110101110000000000 9
b00000000000000000000000000000000000000000000000000000000000000000000000000000000000111111111111 H
b00000000000000000000000000000000000000000000000000000000000000000000000000000000000111111111111 I
b0000000000000000000000000000000000000010100011110101110000000000 A
1;
#226
0;
#231
b111111111111111111111111111111111111111111111111111111111111111111111111111111110100011111111111 -
b00000000000000000000000000000000000000010100011110101111000000000 4
b0000000000000000000000000000000000000000000000000000001000000000 C
b001001 J
b00000000000000000000111111111111 D
b00000000000000000000111111111111 '
b00000000000000000000111111111111 6
b00000010100011110101110000000000 E
b0000000000000000000000000000000000000010100011110101111000000000 !
b00000000000000000000111111111111 ?
b001010 N
b001001 F
b001001 G
b00000000000000000000111111111111 *
b11111111111111111111111111111111111111111111111111111111111111111111111111111110100011111111111 H
1;
#236
0;
#241
b0000000000000000000000000000000000000010100011110101110100000000 !
b111111111111111111111111111111111111111111111111111111111111111111111111111111111010101111111111 -
b001001 N
b00000000000000000000000000000000000000010100011110101110100000000 4
b0000000000000000000000000000000000000000000000000000000100000000 C
b001000 F
b001000 J
b001000 G
b11111111111111111111111111111111111111111111111111111111111111111111111111111111010101111111111 H
1;
#246
0;
#251
b0000000000000000000000000000000000000010100011110101110010000000 !
b111111111111111111111111111111111111111111111111111111111111111111111111111111111101110111111111 -
b001000 N
b00000000000000000000000000000000000000010100011110101110010000000 4
b0000000000000000000000000000000000000000000000000000000010000000 C
b000111 F
b000111 J
b000111 G
b11111111111111111111111111111111111111111111111111111111111111111111111111111111101110111111111 H
1;
#256
0;
#261
b0000000000000000000000000000000000000010100011110101110001000000 !
b111111111111111111111111111111111111111111111111111111111111111111111111111111111111011011111111 -
b000111 N
b00000000000000000000000000000000000000010100011110101110001000000 4
b0000000000000000000000000000000000000000000000000000000001000000 C
b000110 F
b000110 J
b000110 G
b11111111111111111111111111111111111111111111111111111111111111111111111111111111111011011111111 H
1;
#266
0;
#271
b000000000000000000000000000000000000000000000000000000000000000000000000000000000000001101111111 -
b00000000000000000000000000000000000000000000000000000000000000000000000000000000000001101111111 %
b00000000000000000000000000000000000000010100011110101110000100000 4
b0000000000000000000000000000000000000000000000000000000000100000 C
b000101 J
b0000000000000000000000000000000000000010100011110101110000100000 7
b00000000000000000000000000000000000000000000000000000000000000000000000000000000000001101111111 M
b0000000000000000000000000000000000000010100011110101110000100000 !
b000110 N
b0000000000000000000000000000000000000010100011110101110000100000 "
b00000000000000000000000000000000000000000000000000000000000000000000000000000000000001101111111 1
b000101 F
b000101 G
b0000000000000000000000000000000000000010100011110101110000100000 9
b00000000000000000000000000000000000000000000000000000000000000000000000000000000000001101111111 H
b00000000000000000000000000000000000000000000000000000000000000000000000000000000000001101111111 I
b0000000000000000000000000000000000000010100011110101110000100000 A
1;
#276
0;
#281
b111111111111111111111111111111111111111111111111111111111111111111111111111111111111110100111111 -
b00000000000000000000000000000000000000010100011110101110000110000 4
b0000000000000000000000000000000000000000000000000000000000010000 C
b000100 J
b00000000000000000000001101111111 D
b00000000000000000000001101111111 '
b00000000000000000000001101111111 6
b00000010100011110101110000100000 E
b0000000000000000000000000000000000000010100011110101110000110000 !
b00000000000000000000001101111111 ?
b000101 N
b000100 F
b000100 G
b00000000000000000000001101111111 *
b11111111111111111111111111111111111111111111111111111111111111111111111111111111111110100111111 H
1;
#286
0;
#291
b000000000000000000000000000000000000000000000000000000000000000000000000000000000000000001011111 -
b00000000000000000000000000000000000000000000000000000000000000000000000000000000000000001011111 %
b00000000000000000000000000000000000000010100011110101110000101000 4
b0000000000000000000000000000000000000000000000000000000000001000 C
b000011 J
b0000000000000000000000000000000000000010100011110101110000101000 7
b00000000000000000000000000000000000000000000000000000000000000000000000000000000000000001011111 M
b0000000000000000000000000000000000000010100011110101110000101000 !
b000100 N
b0000000000000000000000000000000000000010100011110101110000101000 "
b00000000000000000000000000000000000000000000000000000000000000000000000000000000000000001011111 1
b000011 F
b000011 G
b0000000000000000000000000000000000000010100011110101110000101000 9
b00000000000000000000000000000000000000000000000000000000000000000000000000000000000000001011111 H
b00000000000000000000000000000000000000000000000000000000000000000000000000000000000000001011111 I
b0000000000000000000000000000000000000010100011110101110000101000 A
1;
#296
0;
#301
b111111111111111111111111111111111111111111111111111111111111111111111111111111111111111011001111 -
b00000000000000000000000000000000000000010100011110101110000101100 4
b0000000000000000000000000000000000000000000000000000000000000100 C
b000010 J
b00000000000000000000000001011111 D
b00000000000000000000000001011111 '
b00000000000000000000000001011111 6
b00000010100011110101110000101000 E
b0000000000000000000000000000000000000010100011110101110000101100 !
b00000000000000000000000001011111 ?
b000011 N
b000010 F
b000010 G
b00000000000000000000000001011111 *
b11111111111111111111111111111111111111111111111111111111111111111111111111111111111111011001111 H
1;
#306
0;
#311
b0000000000000000000000000000000000000010100011110101110000101010 !
b111111111111111111111111111111111111111111111111111111111111111111111111111111111111111110010111 -
b000010 N
b00000000000000000000000000000000000000010100011110101110000101010 4
b0000000000000000000000000000000000000000000000000000000000000010 C
b000001 F
b000001 J
b000001 G
b11111111111111111111111111111111111111111111111111111111111111111111111111111111111111110010111 H
1;
#316
0;
#321
b111111111111111111111111111111111111111111111111111111111111111111111111111111111111111111111011 -
b00000000000000000000000000000000000000010100011110101110000101001 4
b0000000000000000000000000000000000000000000000000000000000000001 C
1.
b000000 J
1(
1)
b0000000000000000000000000000000000000010100011110101110000101001 !
b000001 N
b000000 F
b000000 G
b11111111111111111111111111111111111111111111111111111111111111111111111111111111111111111111011 H
1+
1;
#326
0;
#331
13
b111111111111111111111111110011100000000000000000000000000000000000000000000000000000000001011111 -
b01000000000000000000000000000000000000010100011110101110000101000 4
b1000000000000000000000000000000000000000000000000000000000000000 C
15
1/
1>
0)
b1000000000000000000000000000000000000010100011110101110000101000 !
10
b000000 N
12
b11111111111111111111111110011100000000000000000000000000000000000000000000000000000000001011111 H
1,
1;
